{
    "labels": {
        "title": "El otro drama <small>detrás del ‘gota a gota’</small>",
        "description": "Explora y conoce las estadísticas de centenares de jóvenes desempleados que salieron de Colombia para trabajar como cobradores ‘gota a gota’ en 16 países de América Latina.",
        "advice": "*Fuente de información: Cancillería de Colombia.",

        "colombia": "Cifras de quienes pasaron de victimarios a víctimas",
        "colombia_text": "Aunque no todos son por ‘gota a gota’, esta información detalla la situación de colombianos detenidos, muertos o desaparecidos en América Latina.",

        "peru": "Perú",
        "peru_text": "Para algunos comerciantes en mercados de Lima tomar los préstamos  ‘gota a gota’ no fue una opción, sino una obligación.",

        "chile": "Chile",
        "chile_text": "El accionar delictivo de personas de nacionalidad colombiana ha generado un sentimiento de xenofobia en algunas regiones del país.",

        "ecuador": "Ecuador",
        "ecuador_text": "El primer país que importó este fenómeno delictivo ha sufrido los peores estragos por cuenta del accionar violento de los cobradores.",

        "mexico": "México",
        "mexico_text": "La alianza con organizaciones criminales al servicio del narcotráfico ha sido clave para que este flagelo se extienda por el país.",

        "venezuela": "Venezuela",
        "venezuela_text": "Por la crisis política y social que vive el país, las redes del ‘gota a gota’ debieron llevar su capital a otros países de América Latina.",

        "honduras": "Honduras",
        "honduras_text": "Se han denunciado casos en los que las víctimas agobiadas por la presión han optado por cancelar la deuda entregando a sus mujeres o sus hijas.",

        "costa_rica": "Costa Rica",
        "costa_rica_text": "Se tuvo conocimiento en el año 2014 de la presencia de organizaciones dedicadas a estos créditos surgidos en Colombia.",

        "nicaragua": "Nicaragua",
        "nicaragua_text": "Es el país de Centroamérica en el que menos actividad se ha reportado de este sistema de créditos con cobros violentos.",

        "panama": "Panamá",
        "panama_text": "En mayo del 2019 se hizo el primer operativo contra el ‘gota a gota’, pero las autoridades tienen poca información sobre este fenómeno.",

        "brasil": "Brasil",
        "brasil_text": "Los prestamistas han logrado avances en aplicaciones móviles para sistematizar cobros y georreferenciar a los deudores.",

        "guatemala": "Guatemala",
        "guatemala_text": "Los casos registrados en el país centroamericano guardan mayor relación con hechos vinculados al narcotráfico.",

        "paraguay": "Paragüay",
        "paraguay_text": "Los casos registrados en el país charrúa guardan mayor relación con hechos vinculados al narcotráfico.",

        "argentina": "Argentina",
        "argentina_text": "Los colombianos empezaron vendiendo muebles de madera por cuotas en el norte del país y de ahí se extendieron por toda la Nación.",

        "republica_dominicana": "República Dominicana",
        "republica_dominicana_text": "La comisión de delitos por parte de colombianos en este país no tienen relación directa comprobada con créditos usureros.",

        "bolivia": "Bolívia",
        "bolivia_text": "Los colombianos empezaron vendiendo a crédito productos falsificados y de mala calidad para ir ganando adeptos a los préstamos.",

        "el_salvador": "El Salvador",
        "el_salvador_text": "En los países centroamericanos se investiga el nexo criminal entre las redes del ‘gota a gota’ con las maras salvadoreñas.",

        "cuba": "Cuba",
        "cuba_text": "Los datos reportados desde la Isla obedecen a situaciones que son ajenas a algún caso que tenga relación con este sistema de préstamos.",

        "uruguay": "Uruguay",
        "uruguay_text": "En el 2017 se supo de la presencia del ‘gota a gota’ tras una denuncia por la desaparición de un joven cobrador.",

        "arrested": "Detenidos",
        "violent_death": "Muertes violentas",
        "unknown_death": "Muertes por establecer",
        "missing": "Desaparecidos<span class='extra'>2014 - 2019</span>"
    },
    "map_colors": {
        "borders": "#928A8A",
        "default": "rgba(0,0,0,0)",
        "highlight": "#802225",
        "0": "rgba(0,0,0,0)",
        "10": "#8B712D",
        "20": "#8B4E13",
        "40": "#7E3A1C",
        "60": "#712B28",
        "80": "#5A2123",
        "100": "#3B1D27"
    },
    "filters": {
        "title": "Filtrar por:",

        "default": "Selecciona...",
        "all": "Todos",

        "age": "Edad",
        "genre": "Género",
        "legal_status": "Situación",
        "crime": "Delito",
        "extradition_status": "Situación",

        "clear": "Limpiar"
    },
    "controls": {
        "show_info": "Ver información",
        "filter": "Filtrar"
    }
}